ropamujer,idloc
80622.37432,101
29536.84438,102
30799.80339,103
33808.48776,104
36496.24861,105
40218.20664,106
40705.3181,107
39680.57971,108
29385.0204,109
23600.12407,110
32831.6071,111
39366.9973,112
39631.94835,113
51762.48478,114
46507.37481,115
35268.22295,116
28497.84012,117
46453.02331,118
37377.38998,119
39101.68891,120
