ropamujer;idloc
71874.26248;101
35573.73010;102
36308.39315;103
29011.93402;104
28416.45608;105
49335.99275;106
35838.20963;107
41601.02449;108
40463.80854;109
22512.75060;110
43958.20261;111
38853.36008;112
49411.64140;113
44941.35743;114
47381.24657;115
32430.39296;116
34447.66674;117
37958.09312;118
30120.64672;119
45027.69520;120
