ropamujer,idloc
72753.05697,101
35160.12853,102
36908.04931,103
34902.86122,104
32201.45279,105
43458.84257,106
40282.57028,107
42018.87947,108
32143.10297,109
26379.2761,110
42349.1067,111
37451.70926,112
43241.95949,113
49988.9456,114
44861.87619,115
31908.71123,116
31509.67973,117
42471.01687,118
33212.29523,119
41249.74826,120
