ropamujer;idloc
76413,4546;101
30962,34978;102
33929,00802;103
34740,44285;104
34725,28032;105
42944,37497;106
38233,26662;107
42470,0724;108
31979,84033;109
26168,11491;110
44636,32723;111
39657,39865;112
40646,77845;113
42360,7954;114
47266,47965;115
40124,93438;116
32478,38095;117
40314,56662;118
35506,93671;119
40090,50057;120
