ropamujer;idloc
73141,10715;101
31635,58495;102
33677,30536;103
40503,97483;104
40352,07533;105
37408,91929;106
39776,66972;107
49444,69062;108
35735,46312;109
22491,92342;110
47860,62665;111
39488,1087;112
33840,0313;113
54427,87018;114
49316,95982;115
49729,76151;116
33732,77985;117
48287,56135;118
40643,31629;119
36704,01051;120
